{
  "name": "uchideshi34-lmop-maps",
  "title": "uchideshi34's Lost Mine of Phandelver Maps",
  "description": "<p>A pack of maps for Lost Mine of Phandelver. Made in Dungeondraft using 2 Minute Tabletop assets. You can find my other work on reddit posted under my username: u/uchideshi34</p>",
  "authors": [{"name": "uchideshi34"}],
  "id": "uchideshi34-lmop-maps",
  "url": "https://gitlab.com/uchideshi34/lost-mine-of-phandelver-maps/",
  "manifest": "https://gitlab.com/uchideshi34/lost-mine-of-phandelver-maps/-/raw/main/module.json",
  "download": "https://gitlab.com/uchideshi34/lost-mine-of-phandelver-maps/-/raw/main/zip/uchideshi34-lmop-maps.zip",
  "version": "1.1.3",
  "compatibility": {
    "minimum": "10",
    "verified": "12"
  },
  "packs": [
    {
      "name": "maps",
      "label": "LMOP Maps",
      "path": "/packs/lmop-maps.db",
      "entity": "Scene",
      "type": "Scene",
      "private": false
    }
  ]

}
